h4/hw4_1/rf_bench.out
# Compile of and2.v was successful.
# Compile of clkrst.v was successful.
# Compile of decode3_8.v was successful.
# Compile of dff.v was successful.
# Compile of mux2_1.v was successful.
# Compile of mux4_1.v was successful.
# Compile of mux8_1.v was successful.
# Compile of nand2.v was successful.
# Compile of nand3.v was successful.
# Compile of nor2.v was successful.
# Compile of nor3.v was successful.
# Compile of not1.v was successful.
# Compile of register.v was successful.
# Compile of rf.v was successful.
# Compile of rf_bench.v was successful.
# Compile of rf_bypass.v was successful.
# Compile of rf_bypass_bench.v was successful.
# Compile of rf_hier.v was successful.
# Compile of t_rf.v was successful.
# Compile of t_rfBench.v was successful.
# Compile of xor2.v was successful.
# Compile of xor3.v was successful.
# 22 compiles, 0 failed with no errors. 
vsim work.rf_bench
# vsim work.rf_bench 
# Loading work.rf_bench
# Loading work.rf_hier
# Loading work.clkrst
# Loading work.rf
# Loading work.decode3_8
# Loading work.not1
# Loading work.nor3
# Loading work.and2
# Loading work.register
# Loading work.dff
# Loading work.mux2_1
# Loading work.nand2
# Loading work.mux8_1
# Loading work.mux4_1
run -all
# Simulation 1000 cycles
# Cycle:           0 R1: 4 Sim:     z Exp:     0 R2: 1 Sim:     z Exp:     0 W: 3 data: 54793 enable: 1
# Cycle:           1 R1: 5 Sim:     z Exp:     0 R2: 5 Sim:     z Exp:     0 W: 1 data: 21010 enable: 1
# Cycle:           2 R1: 6 Sim:     z Exp:     0 R2: 5 Sim:     z Exp:     0 W: 4 data: 22509 enable: 1
# Cycle:           3 R1: 6 Sim:     z Exp:     0 R2: 5 Sim:     z Exp:     0 W: 5 data: 53930 enable: 1
# Eventlog: Read/write of same port
# Cycle:           4 R1: 2 Sim:     z Exp:     0 R2: 7 Sim:     z Exp:     0 W: 6 data: 27122 enable: 0
# Cycle:           5 R1: 5 Sim:     z Exp: 53930 R2: 4 Sim:     z Exp: 22509 W: 5 data: 10429 enable: 1
# Eventlog: Read/write of same port
# Cycle:           6 R1: 3 Sim:     z Exp:     0 R2: 2 Sim:     z Exp:     0 W: 0 data:  8832 enable: 0
# Cycle:           7 R1: 5 Sim:     z Exp: 10429 R2: 6 Sim:     z Exp:     0 W: 5 data: 47123 enable: 1
# Eventlog: Read/write of same port
# Cycle:           8 R1: 3 Sim:     z Exp:     0 R2: 5 Sim:     z Exp: 47123 W: 6 data: 18946 enable: 1
# Cycle:           9 R1: 7 Sim:     z Exp:     0 R2: 3 Sim:     z Exp:     0 W: 2 data: 25866 enable: 0
# Cycle:          10 R1: 2 Sim:     z Exp:     0 R2: 2 Sim:     z Exp:     0 W: 0 data: 45889 enable: 0
# Eventlog: Both read ports are same
# Cycle:          11 R1: 1 Sim:     z Exp:     0 R2: 3 Sim:     z Exp:     0 W: 6 data: 26038 enable: 0
# Cycle:          12 R1: 4 Sim:     z Exp: 22509 R2: 2 Sim:     z Exp:     0 W: 1 data: 39435 enable: 1
# Cycle:          13 R1: 7 Sim:     z Exp:     0 R2: 3 Sim:     z Exp:     0 W: 6 data: 13114 enable: 1
# Cycle:          14 R1: 1 Sim:     z Exp: 39435 R2: 1 Sim:     z Exp: 39435 W: 4 data:  1890 enable: 1
# Eventlog: Both read ports are same
# Cycle:          15 R1: 7 Sim:     z Exp:     0 R2: 0 Sim:     z Exp:     0 W: 7 data: 24759 enable: 0
# Cycle:          16 R1: 3 Sim:     z Exp:     0 R2: 1 Sim:     z Exp: 39435 W: 0 data: 12873 enable: 1
# Cycle:          17 R1: 1 Sim:     z Exp: 39435 R2: 6 Sim:     z Exp: 13114 W: 2 data: 32524 enable: 0
# Cycle:          18 R1: 7 Sim:     z Exp:     0 R2: 5 Sim:     z Exp: 47123 W: 6 data: 56082 enable: 1
# Cycle:          19 R1: 1 Sim:     z Exp: 39435 R2: 7 Sim:     z Exp:     0 W: 5 data: 63187 enable: 0
# Cycle:          20 R1: 3 Sim:     z Exp:     0 R2: 1 Sim:     z Exp: 39435 W: 2 data: 44607 enable: 0
# Cycle:          21 R1: 6 Sim:     z Exp: 56082 R2: 6 Sim:     z Exp: 56082 W: 2 data: 62108 enable: 0
# Eventlog: Both read ports are same
# Cycle:          22 R1: 3 Sim:     z Exp:     0 R2: 3 Sim:     z Exp:     0 W: 3 data: 43055 enable: 1
# Eventlog: Both read ports are same
# Eventlog: Read/write of same port
# Cycle:          23 R1: 4 Sim:     z Exp:  1890 R2: 7 Sim:     z Exp:     0 W: 6 data: 14027 enable: 0
# Cycle:          24 R1: 1 Sim:     z Exp: 39435 R2: 5 Sim:     z Exp: 47123 W: 5 data: 27866 enable: 1
# Eventlog: Read/write of same port
# Cycle:          25 R1: 7 Sim:     z Exp:     0 R2: 1 Sim:     z Exp: 39435 W: 0 data: 65348 enable: 0
# Cycle:          26 R1: 3 Sim:     z Exp: 43055 R2: 6 Sim:     z Exp: 56082 W: 2 data: 44508 enable: 1
# Cycle:          27 R1: 3 Sim:     z Exp: 43055 R2: 6 Sim:     z Exp: 56082 W: 7 data: 59726 enable: 0
# Cycle:          28 R1: 6 Sim:     z Exp: 56082 R2: 0 Sim:     z Exp: 12873 W: 0 data: 34681 enable: 0
# Cycle:          29 R1: 3 Sim:     z Exp: 43055 R2: 4 Sim:     z Exp:  1890 W: 3 data: 51801 enable: 1
# Eventlog: Read/write of same port
# Cycle:          30 R1: 1 Sim:     z Exp: 39435 R2: 5 Sim:     z Exp: 27866 W: 2 data: 57974 enable: 0
# Cycle:          31 R1: 5 Sim:     z Exp: 27866 R2: 6 Sim:     z Exp: 56082 W: 7 data: 39684 enable: 1
# Cycle:          32 R1: 4 Sim:     z Exp:  1890 R2: 0 Sim:     z Exp: 12873 W: 5 data: 55592 enable: 1
# Cycle:          33 R1: 6 Sim:     z Exp: 56082 R2: 0 Sim:     z Exp: 12873 W: 5 data: 17692 enable: 1
# Cycle:          34 R1: 4 Sim:     z Exp:  1890 R2: 6 Sim:     z Exp: 56082 W: 5 data:  2266 enable: 0
# Cycle:          35 R1: 0 Sim:     z Exp: 12873 R2: 3 Sim:     z Exp: 51801 W: 6 data: 39354 enable: 0
# Cycle:          36 R1: 5 Sim:     z Exp: 17692 R2: 2 Sim:     z Exp: 44508 W: 7 data:   185 enable: 0
# Cycle:          37 R1: 0 Sim:     z Exp: 12873 R2: 6 Sim:     z Exp: 56082 W: 5 data:  6838 enable: 0
# Cycle:          38 R1: 6 Sim:     z Exp: 56082 R2: 0 Sim:     z Exp: 12873 W: 3 data: 39806 enable: 1
# Cycle:          39 R1: 1 Sim:     z Exp: 39435 R2: 2 Sim:     z Exp: 44508 W: 7 data: 61025 enable: 1
# Cycle:          40 R1: 6 Sim:     z Exp: 56082 R2: 0 Sim:     z Exp: 12873 W: 5 data: 23029 enable: 1
# Cycle:          41 R1: 1 Sim:     z Exp: 39435 R2: 5 Sim:     z Exp: 23029 W: 3 data: 46232 enable: 1
# Cycle:          42 R1: 4 Sim:     z Exp:  1890 R2: 2 Sim:     z Exp: 44508 W: 0 data: 53582 enable: 1
# Cycle:          43 R1: 1 Sim:     z Exp: 39435 R2: 6 Sim:     z Exp: 56082 W: 7 data: 26342 enable: 0
# Cycle:          44 R1: 2 Sim:     z Exp: 44508 R2: 5 Sim:     z Exp: 23029 W: 0 data: 65438 enable: 1
# Cycle:          45 R1: 0 Sim:     z Exp: 65438 R2: 2 Sim:     z Exp: 44508 W: 3 data: 16659 enable: 1
# Cycle:          46 R1: 6 Sim:     z Exp: 56082 R2: 2 Sim:     z Exp: 44508 W: 1 data: 43972 enable: 0
# Cycle:          47 R1: 4 Sim:     z Exp:  1890 R2: 7 Sim:     z Exp: 61025 W: 2 data: 36998 enable: 0
# Cycle:          48 R1: 2 Sim:     z Exp: 44508 R2: 5 Sim:     z Exp: 23029 W: 4 data: 52612 enable: 0
# Cycle:          49 R1: 1 Sim:     z Exp: 39435 R2: 1 Sim:     z Exp: 39435 W: 3 data: 43406 enable: 1
# Eventlog: Both read ports are same
# Cycle:          50 R1: 7 Sim:     z Exp: 61025 R2: 1 Sim:     z Exp: 39435 W: 5 data: 58678 enable: 1
# Break at /afs/cs.wisc.edu/u/k/a/katelyn/private/552-project/h4/hw4_1/t_rfBench.v line 115
quit -sim
# Compile of and2.v was successful.
# Compile of clkrst.v was successful.
# Compile of decode3_8.v was successful.
# Compile of dff.v was successful.
# Compile of mux2_1.v was successful.
# Compile of mux4_1.v was successful.
# Compile of mux8_1.v was successful.
# Compile of nand2.v was successful.
# Compile of nand3.v was successful.
# Compile of nor2.v was successful.
# Compile of nor3.v was successful.
# Compile of not1.v was successful.
# Compile of register.v was successful.
# Compile of rf.v was successful.
# Compile of rf_bench.v was successful.
# Compile of rf_bypass.v was successful.
# Compile of rf_hier.v was successful.
# Compile of t_rf.v was successful.
# Compile of t_rfBench.v was successful.
# Compile of xor2.v was successful.
# Compile of xor3.v was successful.
# Compile of rf_bypass_bench.v was successful.
# 22 compiles, 0 failed with no errors. 
vsim work.rf_bypass_bench
# vsim work.rf_bypass_bench 
# Loading work.rf_bypass_bench
# Loading work.rf_hier
# Loading work.clkrst
# Loading work.rf_bypass
# Loading work.rf
# Loading work.decode3_8
# Loading work.not1
# Loading work.nor3
# Loading work.and2
# Loading work.register
# Loading work.xor2
# Loading work.mux2_1
# Loading work.nand2
# Loading work.dff
# Loading work.mux8_1
# Loading work.mux4_1
run -all
# Simulation 1000 cycles
# Cycle:           0 R1: 4 Sim:     z Exp:     0 R2: 1 Sim:     z Exp:     0 W: 3 data: 54793 enable: 1
# Cycle:           1 R1: 5 Sim:     z Exp:     0 R2: 5 Sim:     z Exp:     0 W: 1 data: 21010 enable: 1
# Cycle:           2 R1: 6 Sim:     z Exp:     0 R2: 5 Sim:     z Exp:     0 W: 4 data: 22509 enable: 1
# Cycle:           3 R1: 6 Sim:     z Exp:     0 R2: 5 Sim:     z Exp: 53930 W: 5 data: 53930 enable: 1
# Eventlog: Read/write of same port
# Cycle:           4 R1: 2 Sim:     z Exp:     0 R2: 7 Sim:     z Exp:     0 W: 6 data: 27122 enable: 0
# Cycle:           5 R1: 5 Sim:     z Exp: 10429 R2: 4 Sim:     z Exp: 22509 W: 5 data: 10429 enable: 1
# Eventlog: Read/write of same port
# Cycle:           6 R1: 3 Sim:     z Exp:     0 R2: 2 Sim:     z Exp:     0 W: 0 data:  8832 enable: 0
# Cycle:           7 R1: 5 Sim:     z Exp: 47123 R2: 6 Sim:     z Exp:     0 W: 5 data: 47123 enable: 1
# Eventlog: Read/write of same port
# Cycle:           8 R1: 3 Sim:     z Exp:     0 R2: 5 Sim:     z Exp: 47123 W: 6 data: 18946 enable: 1
# Cycle:           9 R1: 7 Sim:     z Exp:     0 R2: 3 Sim:     z Exp:     0 W: 2 data: 25866 enable: 0
# Cycle:          10 R1: 2 Sim:     z Exp:     0 R2: 2 Sim:     z Exp:     0 W: 0 data: 45889 enable: 0
# Eventlog: Both read ports are same
# Cycle:          11 R1: 1 Sim:     z Exp:     0 R2: 3 Sim:     z Exp:     0 W: 6 data: 26038 enable: 0
# Cycle:          12 R1: 4 Sim:     z Exp: 22509 R2: 2 Sim:     z Exp:     0 W: 1 data: 39435 enable: 1
# Cycle:          13 R1: 7 Sim:     z Exp:     0 R2: 3 Sim:     z Exp:     0 W: 6 data: 13114 enable: 1
# Cycle:          14 R1: 1 Sim:     z Exp: 39435 R2: 1 Sim:     z Exp: 39435 W: 4 data:  1890 enable: 1
# Eventlog: Both read ports are same
# Cycle:          15 R1: 7 Sim:     z Exp:     0 R2: 0 Sim:     z Exp:     0 W: 7 data: 24759 enable: 0
# Cycle:          16 R1: 3 Sim:     z Exp:     0 R2: 1 Sim:     z Exp: 39435 W: 0 data: 12873 enable: 1
# Cycle:          17 R1: 1 Sim:     z Exp: 39435 R2: 6 Sim:     z Exp: 13114 W: 2 data: 32524 enable: 0
# Cycle:          18 R1: 7 Sim:     z Exp:     0 R2: 5 Sim:     z Exp: 47123 W: 6 data: 56082 enable: 1
# Cycle:          19 R1: 1 Sim:     z Exp: 39435 R2: 7 Sim:     z Exp:     0 W: 5 data: 63187 enable: 0
# Cycle:          20 R1: 3 Sim:     z Exp:     0 R2: 1 Sim:     z Exp: 39435 W: 2 data: 44607 enable: 0
# Cycle:          21 R1: 6 Sim:     z Exp: 56082 R2: 6 Sim:     z Exp: 56082 W: 2 data: 62108 enable: 0
# Eventlog: Both read ports are same
# Cycle:          22 R1: 3 Sim:     z Exp: 43055 R2: 3 Sim:     z Exp: 43055 W: 3 data: 43055 enable: 1
# Eventlog: Both read ports are same
# Eventlog: Read/write of same port
# Cycle:          23 R1: 4 Sim:     z Exp:  1890 R2: 7 Sim:     z Exp:     0 W: 6 data: 14027 enable: 0
# Cycle:          24 R1: 1 Sim:     z Exp: 39435 R2: 5 Sim:     z Exp: 27866 W: 5 data: 27866 enable: 1
# Eventlog: Read/write of same port
# Cycle:          25 R1: 7 Sim:     z Exp:     0 R2: 1 Sim:     z Exp: 39435 W: 0 data: 65348 enable: 0
# Cycle:          26 R1: 3 Sim:     z Exp: 43055 R2: 6 Sim:     z Exp: 56082 W: 2 data: 44508 enable: 1
# Cycle:          27 R1: 3 Sim:     z Exp: 43055 R2: 6 Sim:     z Exp: 56082 W: 7 data: 59726 enable: 0
# Cycle:          28 R1: 6 Sim:     z Exp: 56082 R2: 0 Sim:     z Exp: 12873 W: 0 data: 34681 enable: 0
# Cycle:          29 R1: 3 Sim:     z Exp: 51801 R2: 4 Sim:     z Exp:  1890 W: 3 data: 51801 enable: 1
# Eventlog: Read/write of same port
# Cycle:          30 R1: 1 Sim:     z Exp: 39435 R2: 5 Sim:     z Exp: 27866 W: 2 data: 57974 enable: 0
# Cycle:          31 R1: 5 Sim:     z Exp: 27866 R2: 6 Sim:     z Exp: 56082 W: 7 data: 39684 enable: 1
# Cycle:          32 R1: 4 Sim:     z Exp:  1890 R2: 0 Sim:     z Exp: 12873 W: 5 data: 55592 enable: 1
# Cycle:          33 R1: 6 Sim:     z Exp: 56082 R2: 0 Sim:     z Exp: 12873 W: 5 data: 17692 enable: 1
# Cycle:          34 R1: 4 Sim:     z Exp:  1890 R2: 6 Sim:     z Exp: 56082 W: 5 data:  2266 enable: 0
# Cycle:          35 R1: 0 Sim:     z Exp: 12873 R2: 3 Sim:     z Exp: 51801 W: 6 data: 39354 enable: 0
# Cycle:          36 R1: 5 Sim:     z Exp: 17692 R2: 2 Sim:     z Exp: 44508 W: 7 data:   185 enable: 0
# Cycle:          37 R1: 0 Sim:     z Exp: 12873 R2: 6 Sim:     z Exp: 56082 W: 5 data:  6838 enable: 0
# Cycle:          38 R1: 6 Sim:     z Exp: 56082 R2: 0 Sim:     z Exp: 12873 W: 3 data: 39806 enable: 1
# Cycle:          39 R1: 1 Sim:     z Exp: 39435 R2: 2 Sim:     z Exp: 44508 W: 7 data: 61025 enable: 1
# Cycle:          40 R1: 6 Sim:     z Exp: 56082 R2: 0 Sim:     z Exp: 12873 W: 5 data: 23029 enable: 1
# Cycle:          41 R1: 1 Sim:     z Exp: 39435 R2: 5 Sim:     z Exp: 23029 W: 3 data: 46232 enable: 1
# Cycle:          42 R1: 4 Sim:     z Exp:  1890 R2: 2 Sim:     z Exp: 44508 W: 0 data: 53582 enable: 1
# Cycle:          43 R1: 1 Sim:     z Exp: 39435 R2: 6 Sim:     z Exp: 56082 W: 7 data: 26342 enable: 0
# Cycle:          44 R1: 2 Sim:     z Exp: 44508 R2: 5 Sim:     z Exp: 23029 W: 0 data: 65438 enable: 1
# Cycle:          45 R1: 0 Sim:     z Exp: 65438 R2: 2 Sim:     z Exp: 44508 W: 3 data: 16659 enable: 1
# Cycle:          46 R1: 6 Sim:     z Exp: 56082 R2: 2 Sim:     z Exp: 44508 W: 1 data: 43972 enable: 0
# Cycle:          47 R1: 4 Sim:     z Exp:  1890 R2: 7 Sim:     z Exp: 61025 W: 2 data: 36998 enable: 0
# Cycle:          48 R1: 2 Sim:     z Exp: 44508 R2: 5 Sim:     z Exp: 23029 W: 4 data: 52612 enable: 0
# Cycle:          49 R1: 1 Sim:     z Exp: 39435 R2: 1 Sim:     z Exp: 39435 W: 3 data: 43406 enable: 1
# Eventlog: Both read ports are same
# Cycle:          50 R1: 7 Sim:     z Exp: 61025 R2: 1 Sim:     z Exp: 39435 W: 5 data: 58678 enable: 1
# Cycle:          51 R1: 3 Sim:     z Exp: 43406 R2: 0 Sim:     z Exp: 65438 W: 3 data: 46254 enable: 0
# Cycle:          52 R1: 0 Sim:     z Exp: 65438 R2: 5 Sim:     z Exp: 58678 W: 2 data: 24395 enable: 0
# Cycle:          53 R1: 5 Sim:     z Exp: 58678 R2: 4 Sim:     z Exp:  1890 W: 1 data: 40216 enable: 0
# Cycle:          54 R1: 1 Sim:     z Exp: 39435 R2: 3 Sim:     z Exp: 43406 W: 3 data: 63960 enable: 0
# Cycle:          55 R1: 3 Sim:     z Exp: 43406 R2: 2 Sim:     z Exp: 44508 W: 3 data: 57860 enable: 0
# Cycle:          56 R1: 2 Sim:     z Exp: 44508 R2: 0 Sim:     z Exp: 65438 W: 5 data:  4665 enable: 1
# Cycle:          57 R1: 3 Sim:     z Exp: 43406 R2: 1 Sim:     z Exp: 39435 W: 7 data: 34248 enable: 1
# Cycle:          58 R1: 7 Sim:     z Exp: 34248 R2: 4 Sim:     z Exp:  1890 W: 6 data:  9048 enable: 0
# Cycle:          59 R1: 2 Sim:     z Exp: 44508 R2: 6 Sim:     z Exp: 56082 W: 5 data: 58033 enable: 1
# Cycle:          60 R1: 3 Sim:     z Exp: 43406 R2: 5 Sim:     z Exp: 58033 W: 7 data:   941 enable: 0
# Cycle:          61 R1: 7 Sim:     z Exp: 34248 R2: 7 Sim:     z Exp: 34248 W: 1 data: 37049 enable: 1
# Eventlog: Both read ports are same
# Cycle:          62 R1: 1 Sim:     z Exp: 37049 R2: 1 Sim:     z Exp: 37049 W: 2 data: 24225 enable: 0
# Eventlog: Both read ports are same
# Cycle:          63 R1: 5 Sim:     z Exp: 58033 R2: 3 Sim:     z Exp: 43406 W: 2 data: 17020 enable: 0
# Cycle:          64 R1: 0 Sim:     z Exp: 65438 R2: 7 Sim:     z Exp: 34248 W: 0 data:  3462 enable: 0
# Cycle:          65 R1: 0 Sim:     z Exp: 65438 R2: 0 Sim:     z Exp: 65438 W: 5 data: 43510 enable: 0
# Eventlog: Both read ports are same
# Cycle:          66 R1: 4 Sim:     z Exp:  1890 R2: 1 Sim:     z Exp: 37049 W: 4 data: 27312 enable: 0
# Cycle:          67 R1: 2 Sim:     z Exp: 44508 R2: 5 Sim:     z Exp: 58033 W: 7 data: 20193 enable: 1
# Cycle:          68 R1: 1 Sim:     z Exp: 52005 R2: 6 Sim:     z Exp: 56082 W: 1 data: 52005 enable: 1
# Eventlog: Read/write of same port
# Cycle:          69 R1: 2 Sim:     z Exp: 44508 R2: 7 Sim:     z Exp: 20193 W: 4 data: 31532 enable: 1
# Cycle:          70 R1: 3 Sim:     z Exp: 43406 R2: 6 Sim:     z Exp: 56082 W: 6 data: 49911 enable: 0
# Cycle:          71 R1: 5 Sim:     z Exp: 58033 R2: 0 Sim:     z Exp: 65438 W: 2 data:  4768 enable: 0
# Cycle:          72 R1: 5 Sim:     z Exp: 58033 R2: 5 Sim:     z Exp: 58033 W: 1 data: 39243 enable: 0
# Eventlog: Both read ports are same
# Cycle:          73 R1: 5 Sim:     z Exp: 58033 R2: 3 Sim:     z Exp: 29583 W: 3 data: 29583 enable: 1
# Eventlog: Read/write of same port
# Cycle:          74 R1: 5 Sim:     z Exp: 58033 R2: 1 Sim:     z Exp: 52005 W: 5 data: 40772 enable: 0
# Cycle:          75 R1: 5 Sim:     z Exp: 58033 R2: 2 Sim:     z Exp: 44508 W: 5 data: 23544 enable: 0
# Cycle:          76 R1: 4 Sim:     z Exp: 31532 R2: 6 Sim:     z Exp: 56082 W: 0 data: 37516 enable: 1
# Cycle:          77 R1: 2 Sim:     z Exp: 44508 R2: 4 Sim:     z Exp: 31532 W: 4 data: 48298 enable: 0
# Cycle:          78 R1: 2 Sim:     z Exp: 44508 R2: 3 Sim:     z Exp: 29583 W: 5 data: 65190 enable: 0
# Cycle:          79 R1: 2 Sim:     z Exp: 44508 R2: 1 Sim:     z Exp: 52005 W: 5 data: 45076 enable: 1
# Cycle:          80 R1: 4 Sim:     z Exp: 31532 R2: 7 Sim:     z Exp: 20193 W: 1 data: 38790 enable: 0
# Cycle:          81 R1: 0 Sim:     z Exp: 37516 R2: 4 Sim:     z Exp: 31532 W: 7 data: 17804 enable: 0
# Cycle:          82 R1: 1 Sim:     z Exp: 52005 R2: 0 Sim:     z Exp: 37516 W: 3 data: 40523 enable: 0
# Cycle:          83 R1: 3 Sim:     z Exp: 29583 R2: 4 Sim:     z Exp: 31532 W: 1 data: 26057 enable: 1
# Cycle:          84 R1: 4 Sim:     z Exp: 31532 R2: 7 Sim:     z Exp: 20193 W: 0 data: 16797 enable: 0
# Cycle:          85 R1: 1 Sim:     z Exp: 26057 R2: 1 Sim:     z Exp: 26057 W: 4 data: 46880 enable: 1
# Eventlog: Both read ports are same
# Cycle:          86 R1: 3 Sim:     z Exp: 29583 R2: 2 Sim:     z Exp: 44508 W: 5 data: 63688 enable: 0
# Cycle:          87 R1: 4 Sim:     z Exp: 46880 R2: 3 Sim:     z Exp: 29583 W: 2 data: 32569 enable: 0
# Cycle:          88 R1: 1 Sim:     z Exp: 26057 R2: 0 Sim:     z Exp: 37516 W: 7 data: 60014 enable: 1
# Cycle:          89 R1: 6 Sim:     z Exp: 56082 R2: 3 Sim:     z Exp: 29583 W: 7 data: 31744 enable: 1
# Cycle:          90 R1: 4 Sim:     z Exp: 46880 R2: 1 Sim:     z Exp: 26057 W: 7 data: 18885 enable: 0
# Cycle:          91 R1: 1 Sim:     z Exp: 26057 R2: 1 Sim:     z Exp: 26057 W: 2 data: 52599 enable: 0
# Eventlog: Both read ports are same
# Cycle:          92 R1: 3 Sim:     z Exp: 29583 R2: 4 Sim:     z Exp: 46880 W: 7 data: 45496 enable: 0
# Cycle:          93 R1: 0 Sim:     z Exp: 37516 R2: 7 Sim:     z Exp: 31744 W: 4 data: 51125 enable: 1
# Cycle:          94 R1: 6 Sim:     z Exp: 56082 R2: 1 Sim:     z Exp: 35723 W: 1 data: 35723 enable: 1
# Eventlog: Read/write of same port
# Cycle:          95 R1: 0 Sim:     z Exp: 56005 R2: 2 Sim:     z Exp: 44508 W: 0 data: 56005 enable: 1
# Eventlog: Read/write of same port
# Cycle:          96 R1: 6 Sim:     z Exp: 56082 R2: 7 Sim:     z Exp: 31744 W: 0 data: 28393 enable: 0
# Cycle:          97 R1: 7 Sim:     z Exp: 31744 R2: 1 Sim:     z Exp: 35723 W: 6 data: 31893 enable: 0
# Cycle:          98 R1: 5 Sim:     z Exp: 45076 R2: 0 Sim:     z Exp: 56005 W: 1 data: 32100 enable: 1
# Cycle:          99 R1: 7 Sim:     z Exp: 31744 R2: 6 Sim:     z Exp: 56082 W: 5 data: 62849 enable: 0
# Cycle:         100 R1: 0 Sim:     z Exp: 56005 R2: 2 Sim:     z Exp: 44508 W: 1 data: 49935 enable: 1
# Cycle:         101 R1: 6 Sim:     z Exp: 56082 R2: 2 Sim:     z Exp: 44508 W: 1 data: 19772 enable: 1
# Cycle:         102 R1: 3 Sim:     z Exp: 29583 R2: 7 Sim:     z Exp: 31744 W: 1 data: 39754 enable: 1
# Cycle:         103 R1: 3 Sim:     z Exp: 29583 R2: 5 Sim:     z Exp: 45076 W: 7 data: 10065 enable: 1
# Cycle:         104 R1: 2 Sim:     z Exp: 44508 R2: 1 Sim:     z Exp: 39754 W: 4 data:  1890 enable: 0
# Cycle:         105 R1: 5 Sim:     z Exp: 41957 R2: 1 Sim:     z Exp: 39754 W: 5 data: 41957 enable: 1
# Eventlog: Read/write of same port
# Cycle:         106 R1: 1 Sim:     z Exp: 39754 R2: 7 Sim:     z Exp: 10065 W: 5 data:  7387 enable: 0
# Cycle:         107 R1: 6 Sim:     z Exp: 56082 R2: 2 Sim:     z Exp: 44508 W: 2 data: 15805 enable: 0
# Cycle:         108 R1: 0 Sim:     z Exp: 56005 R2: 3 Sim:     z Exp: 29583 W: 0 data: 22565 enable: 0
# Cycle:         109 R1: 4 Sim:     z Exp: 51125 R2: 3 Sim:     z Exp: 29583 W: 0 data: 43897 enable: 1
# Cycle:         110 R1: 6 Sim:     z Exp: 56082 R2: 3 Sim:     z Exp: 29583 W: 6 data:   780 enable: 0
# Cycle:         111 R1: 1 Sim:     z Exp: 39754 R2: 1 Sim:     z Exp: 39754 W: 4 data: 49331 enable: 1
# Eventlog: Both read ports are same
# Cycle:         112 R1: 4 Sim:     z Exp: 49331 R2: 1 Sim:     z Exp: 39754 W: 5 data: 37634 enable: 1
# Cycle:         113 R1: 6 Sim:     z Exp: 56082 R2: 2 Sim:     z Exp: 44508 W: 0 data: 20920 enable: 1
# Cycle:         114 R1: 7 Sim:     z Exp: 10065 R2: 0 Sim:     z Exp: 20920 W: 5 data:  2448 enable: 0
# Cycle:         115 R1: 3 Sim:     z Exp: 29583 R2: 0 Sim:     z Exp: 20920 W: 5 data:   805 enable: 0
# Cycle:         116 R1: 5 Sim:     z Exp: 37634 R2: 1 Sim:     z Exp: 39754 W: 0 data: 20924 enable: 0
# Cycle:         117 R1: 0 Sim:     z Exp: 20920 R2: 1 Sim:     z Exp: 39754 W: 5 data: 16205 enable: 1
# Cycle:         118 R1: 5 Sim:     z Exp: 16205 R2: 4 Sim:     z Exp: 49331 W: 4 data: 42602 enable: 0
# Cycle:         119 R1: 6 Sim:     z Exp: 56082 R2: 2 Sim:     z Exp: 44508 W: 7 data:  2886 enable: 1
# Cycle:         120 R1: 5 Sim:     z Exp: 16205 R2: 7 Sim:     z Exp:  2886 W: 3 data: 61765 enable: 1
# Cycle:         121 R1: 6 Sim:     z Exp: 56082 R2: 0 Sim:     z Exp: 20920 W: 0 data: 58398 enable: 0
# Cycle:         122 R1: 4 Sim:     z Exp: 49331 R2: 1 Sim:     z Exp: 39754 W: 0 data:  8107 enable: 1
# Cycle:         123 R1: 0 Sim:     z Exp:  8107 R2: 5 Sim:     z Exp: 16205 W: 3 data: 42893 enable: 0
# Cycle:         124 R1: 4 Sim:     z Exp: 49331 R2: 4 Sim:     z Exp: 49331 W: 5 data: 36121 enable: 0
# Eventlog: Both read ports are same
# Cycle:         125 R1: 3 Sim:     z Exp: 61765 R2: 0 Sim:     z Exp:  8107 W: 4 data: 27588 enable: 0
# Cycle:         126 R1: 2 Sim:     z Exp: 44508 R2: 0 Sim:     z Exp:  8107 W: 2 data: 26309 enable: 0
# Cycle:         127 R1: 3 Sim:     z Exp: 61765 R2: 2 Sim:     z Exp: 44508 W: 1 data: 25356 enable: 1
# Cycle:         128 R1: 3 Sim:     z Exp: 61765 R2: 0 Sim:     z Exp:  8107 W: 1 data:  1010 enable: 1
# Cycle:         129 R1: 3 Sim:     z Exp: 61765 R2: 5 Sim:     z Exp: 49512 W: 5 data: 49512 enable: 1
# Eventlog: Read/write of same port
# Cycle:         130 R1: 3 Sim:     z Exp: 61765 R2: 3 Sim:     z Exp: 61765 W: 5 data: 16000 enable: 0
# Eventlog: Both read ports are same
# Cycle:         131 R1: 4 Sim:     z Exp: 49331 R2: 7 Sim:     z Exp:  2886 W: 2 data: 35638 enable: 1
# Cycle:         132 R1: 4 Sim:     z Exp: 49331 R2: 6 Sim:     z Exp: 56082 W: 0 data: 60586 enable: 0
# Cycle:         133 R1: 4 Sim:     z Exp: 49331 R2: 1 Sim:     z Exp:  1010 W: 4 data: 36859 enable: 0
# Cycle:         134 R1: 7 Sim:     z Exp:  2886 R2: 1 Sim:     z Exp:  1010 W: 5 data:  8683 enable: 1
# Cycle:         135 R1: 7 Sim:     z Exp:  2886 R2: 7 Sim:     z Exp:  2886 W: 3 data: 10928 enable: 0
# Eventlog: Both read ports are same
# Cycle:         136 R1: 2 Sim:     z Exp: 35638 R2: 2 Sim:     z Exp: 35638 W: 7 data: 42865 enable: 0
# Eventlog: Both read ports are same
# Cycle:         137 R1: 1 Sim:     z Exp:  1010 R2: 5 Sim:     z Exp:  8683 W: 4 data: 17157 enable: 0
# Cycle:         138 R1: 4 Sim:     z Exp: 49331 R2: 2 Sim:     z Exp: 35638 W: 7 data: 19045 enable: 1
# Cycle:         139 R1: 6 Sim:     z Exp: 56082 R2: 5 Sim:     z Exp:  8683 W: 0 data:  3646 enable: 0
# Cycle:         140 R1: 0 Sim:     z Exp: 19730 R2: 6 Sim:     z Exp: 56082 W: 0 data: 19730 enable: 1
# Eventlog: Read/write of same port
# Cycle:         141 R1: 6 Sim:     z Exp: 56082 R2: 6 Sim:     z Exp: 56082 W: 3 data:  2547 enable: 1
# Eventlog: Both read ports are same
# Cycle:         142 R1: 7 Sim:     z Exp: 19045 R2: 7 Sim:     z Exp: 19045 W: 2 data: 46612 enable: 0
# Eventlog: Both read ports are same
# Cycle:         143 R1: 4 Sim:     z Exp: 49331 R2: 3 Sim:     z Exp:  2547 W: 4 data: 49771 enable: 0
# Cycle:         144 R1: 5 Sim:     z Exp:  8683 R2: 1 Sim:     z Exp: 48517 W: 1 data: 48517 enable: 1
# Eventlog: Read/write of same port
# Cycle:         145 R1: 0 Sim:     z Exp: 19730 R2: 6 Sim:     z Exp: 56082 W: 7 data: 52028 enable: 0
# Cycle:         146 R1: 3 Sim:     z Exp:  2547 R2: 6 Sim:     z Exp: 56082 W: 0 data:  9180 enable: 0
# Cycle:         147 R1: 0 Sim:     z Exp: 19730 R2: 3 Sim:     z Exp:  2547 W: 1 data: 37368 enable: 1
